…
```{.r .cell-code}
pixels_path <- 'clean_data/labeled_pixels.rds'

clean_pixels <- readRDS(pixels_path) |>
  group_by(key) |>
  slice_sample(n = 1000) |>
  ungroup()

clean_pixels
```

::: {.cell-output .cell-output-stdout}

```
# A tibble: 544,852 × 164
   label key      cell   area hsl_1 hsl_2 hsl_3 lab_1 lab_2 lab_3
   <chr> <chr>   <dbl>  <dbl> <int> <int> <int> <int> <int> <int>
 1 sand  34_1  9250893 29235.    25    45   113   183    71    77
 2 sand  34_1  9448515 29235.    25    56    95   169    72    86
 3 sand  34_1  9460486 29235.    25    48   105   177    71    80
 4 sand  34_1  9456528 29235.    24    53    97   170    74    82
 5 sand  34_1  9279079 29235.    25    50   149   205    70    69
 6 sand  34_1  9589581 29235.    25    51   147   204    71    71
 7 sand  34_1  9605749 29235.    23    66   167   215    74    68
 8 sand  34_1  9831567 29235.    24    48   120   187    74    80
 9 sand  34_1  9577434 29235.    25    45   112   182    71    77
10 sand  34_1  9089581 29235.    28    42   105   178    67    76
# ℹ 544,842 more rows
# ℹ 154 more variables: lab_contrast_L3_W11 <dbl>, lab_contrast_L3_W5 <dbl>,
#   rgb_1 <int>, rgb_2 <int>, rgb_3 <int>, rgb_seg_SR3_RR4.5_MD30_1 <int>,
#   rgb_seg_SR3_RR4.5_MD30_2 <int>, rgb_seg_SR3_RR4.5_MD30_3 <int>,
#   rgb_seg_SR3_RR4.5_MD30_hsl_1 <int>, rgb_seg_SR3_RR4.5_MD30_hsl_2 <int>,
#   rgb_seg_SR3_RR4.5_MD30_hsl_3 <int>, rgb_seg_SR3_RR4.5_MD30_lab_1 <int>,
#   rgb_seg_SR3_RR4.5_MD30_lab_2 <int>, rgb_seg_SR3_RR4.5_MD30_lab_3 <int>, …
```
…
